{
    "response_code": 0,
    "results": [
        {
            "category": "Sports",
            "type": "multiple",
            "difficulty": "hard",
            "question": "Which male player won the gold medal of table tennis singles in 2016 Olympics Games?",
            "correct_answer": "Ma Long (China)",
            "incorrect_answers": [
                "Zhang Jike (China)",
                "Jun Mizutani (Japan)",
                "Vladimir Samsonov (Belarus)"
            ]
        }
    ]
}